Introduction to gratis
…
#> Warning: Returning more (or less) than 1 row per `summarise()` group was deprecated in
#> dplyr 1.1.0.
#> ℹ Please use `reframe()` instead.
#> ℹ When switching from `summarise()` to `reframe()`, remember that `reframe()`
#>   always returns an ungrouped data frame and adjust accordingly.
#> Call `lifecycle::last_lifecycle_warnings()` to see where this warning was
#> generated.

#> # A tibble: 30 × 3
#>    key       value feature
#>    <chr>     <dbl> <chr>  
#>  1 Series 1  0.481 entropy
#>  2 Series 1  0.902 acf1   
#>  3 Series 1  0.783 acf2   
#>  4 Series 10 0.491 entropy
#>  5 Series 10 0.900 acf1   
#>  6 Series 10 0.790 acf2   
#>  7 Series 2  0.464 entropy
#>  8 Series 2  0.914 acf1   
#>  9 Series 2  0.825 acf2   
#> 10 Series 3  0.443 entropy
#> # ℹ 20 more rows
…
